src/wave.vcd
$date
	Tue Oct  7 15:54:19 2025
$end
$version
	QuestaSim Version 10.6c
$end
$timescale
	1ns
$end

$scope module uvm_root $end
$upscope $end

$scope module top $end
$var reg 1 ! wclk $end
$var reg 1 " rclk $end
$var reg 1 # rrst_n $end
$var reg 1 $ wrst_n $end

$scope module dut $end
$var parameter 32 % DSIZE $end
$var parameter 32 & ASIZE $end
$var wire 1 ' rdata [7] $end
$var wire 1 ( rdata [6] $end
$var wire 1 ) rdata [5] $end
$var wire 1 * rdata [4] $end
$var wire 1 + rdata [3] $end
$var wire 1 , rdata [2] $end
$var wire 1 - rdata [1] $end
$var wire 1 . rdata [0] $end
$var wire 1 / wfull $end
$var wire 1 0 rempty $end
$var wire 1 1 wdata [7] $end
$var wire 1 2 wdata [6] $end
$var wire 1 3 wdata [5] $end
$var wire 1 4 wdata [4] $end
$var wire 1 5 wdata [3] $end
$var wire 1 6 wdata [2] $end
$var wire 1 7 wdata [1] $end
$var wire 1 8 wdata [0] $end
$var wire 1 9 winc $end
$var wire 1 : wclk $end
$var wire 1 ; wrst_n $end
$var wire 1 < rinc $end
$var wire 1 = rclk $end
$var wire 1 > rrst_n $end
$var wire 1 ? waddr [3] $end
$var wire 1 @ waddr [2] $end
$var wire 1 A waddr [1] $end
$var wire 1 B waddr [0] $end
$var wire 1 C raddr [3] $end
$var wire 1 D raddr [2] $end
$var wire 1 E raddr [1] $end
$var wire 1 F raddr [0] $end
$var wire 1 G wptr [4] $end
$var wire 1 H wptr [3] $end
$var wire 1 I wptr [2] $end
$var wire 1 J wptr [1] $end
$var wire 1 K wptr [0] $end
$var wire 1 L rptr [4] $end
$var wire 1 M rptr [3] $end
$var wire 1 N rptr [2] $end
$var wire 1 O rptr [1] $end
$var wire 1 P rptr [0] $end
$var wire 1 Q wq2_rptr [4] $end
$var wire 1 R wq2_rptr [3] $end
$var wire 1 S wq2_rptr [2] $end
$var wire 1 T wq2_rptr [1] $end
$var wire 1 U wq2_rptr [0] $end
$var wire 1 V rq2_wptr [4] $end
$var wire 1 W rq2_wptr [3] $end
$var wire 1 X rq2_wptr [2] $end
$var wire 1 Y rq2_wptr [1] $end
$var wire 1 Z rq2_wptr [0] $end

$scope module sync_r2w $end
$var parameter 32 [ SIZE $end
$var reg 5 \ q2 [4:0] $end
$var wire 1 L din [4] $end
$var wire 1 M din [3] $end
$var wire 1 N din [2] $end
$var wire 1 O din [1] $end
$var wire 1 P din [0] $end
$var wire 1 : clk $end
$var wire 1 ; rst_n $end
$var reg 5 ] q1 [4:0] $end
$upscope $end

$scope module sync_w2r $end
$var parameter 32 ^ SIZE $end
$var reg 5 _ q2 [4:0] $end
$var wire 1 G din [4] $end
$var wire 1 H din [3] $end
$var wire 1 I din [2] $end
$var wire 1 J din [1] $end
$var wire 1 K din [0] $end
$var wire 1 = clk $end
$var wire 1 > rst_n $end
$var reg 5 ` q1 [4:0] $end
$upscope $end

$scope module fifomem $end
$var parameter 32 a DATA_SIZE $end
$var parameter 32 b ADDR_SIZE $end
$var parameter 32 c DEPTH $end
$var wire 1 ' rdata [7] $end
$var wire 1 ( rdata [6] $end
$var wire 1 ) rdata [5] $end
$var wire 1 * rdata [4] $end
$var wire 1 + rdata [3] $end
$var wire 1 , rdata [2] $end
$var wire 1 - rdata [1] $end
$var wire 1 . rdata [0] $end
$var wire 1 1 wdata [7] $end
$var wire 1 2 wdata [6] $end
$var wire 1 3 wdata [5] $end
$var wire 1 4 wdata [4] $end
$var wire 1 5 wdata [3] $end
$var wire 1 6 wdata [2] $end
$var wire 1 7 wdata [1] $end
$var wire 1 8 wdata [0] $end
$var wire 1 ? waddr [3] $end
$var wire 1 @ waddr [2] $end
$var wire 1 A waddr [1] $end
$var wire 1 B waddr [0] $end
$var wire 1 C raddr [3] $end
$var wire 1 D raddr [2] $end
$var wire 1 E raddr [1] $end
$var wire 1 F raddr [0] $end
$var wire 1 9 wclk_en $end
$var wire 1 / wfull $end
$var wire 1 : wclk $end
$upscope $end

$scope module rptr_empty $end
$var parameter 32 d ADDR_SIZE $end
$var reg 1 e rempty $end
$var wire 1 C raddr [3] $end
$var wire 1 D raddr [2] $end
$var wire 1 E raddr [1] $end
$var wire 1 F raddr [0] $end
$var reg 5 f rptr [4:0] $end
$var wire 1 V rq2_wptr [4] $end
$var wire 1 W rq2_wptr [3] $end
$var wire 1 X rq2_wptr [2] $end
$var wire 1 Y rq2_wptr [1] $end
$var wire 1 Z rq2_wptr [0] $end
$var wire 1 < rinc $end
$var wire 1 = rclk $end
$var wire 1 > rrst_n $end
$var reg 5 g rbin [4:0] $end
$var wire 5 h rgray_next [4:0] $end
$var wire 5 i rbin_next [4:0] $end
$var wire 1 j rempty_val $end
$upscope $end

$scope module wptr_full $end
$var parameter 32 k ADDR_SIZE $end
$var reg 1 l wfull $end
$var wire 1 ? waddr [3] $end
$var wire 1 @ waddr [2] $end
$var wire 1 A waddr [1] $end
$var wire 1 B waddr [0] $end
$var reg 5 m wptr [4:0] $end
$var wire 1 Q wq2_rptr [4] $end
$var wire 1 R wq2_rptr [3] $end
$var wire 1 S wq2_rptr [2] $end
$var wire 1 T wq2_rptr [1] $end
$var wire 1 U wq2_rptr [0] $end
$var wire 1 9 winc $end
$var wire 1 : wclk $end
$var wire 1 ; wrst_n $end
$var reg 5 n wbin [4:0] $end
$var wire 5 o wgray_next [4:0] $end
$var wire 5 p wbin_next [4:0] $end
$var wire 1 q wfull_val $end
$upscope $end
$upscope $end
$upscope $end

$scope begin uvm_pkg $end
$var parameter 32 r UVM_HDL_MAX_WIDTH $end
$var parameter 32 s UVM_STREAMBITS $end
$var parameter 32 t UVM_RADIX $end
$var parameter 32 u UVM_MACRO_NUMFLAGS $end
$var parameter 32 v UVM_DEFAULT $end
$var parameter 32 w UVM_ALL_ON $end
$var parameter 32 x UVM_FLAGS_ON $end
$var parameter 32 y UVM_FLAGS_OFF $end
$var parameter 32 z UVM_COPY $end
$var parameter 32 { UVM_NOCOPY $end
$var parameter 32 | UVM_COMPARE $end
$var parameter 32 } UVM_NOCOMPARE $end
$var parameter 32 ~ UVM_PRINT $end
$var parameter 32 !! UVM_NOPRINT $end
$var parameter 32 "! UVM_RECORD $end
$var parameter 32 #! UVM_NORECORD $end
$var parameter 32 $! UVM_PACK $end
$var parameter 32 %! UVM_NOPACK $end
$var parameter 32 &! UVM_PHYSICAL $end
$var parameter 32 '! UVM_ABSTRACT $end
$var parameter 32 (! UVM_READONLY $end
$var parameter 32 )! UVM_NODEFPRINT $end
$var parameter 32 *! UVM_MACRO_EXTRAS $end
$var parameter 32 +! UVM_FLAGS $end
$var parameter 32 ,! UVM_UNPACK $end
$var parameter 32 -! UVM_CHECK_FIELDS $end
$var parameter 32 .! UVM_END_DATA_EXTRA $end
$var parameter 32 /! UVM_START_FUNCS $end
$var parameter 32 0! UVM_SET $end
$var parameter 32 1! UVM_SETINT $end
$var parameter 32 2! UVM_SETOBJ $end
$var parameter 32 3! UVM_SETSTR $end
$var parameter 32 4! UVM_END_FUNCS $end
$var parameter 32 5! UVM_STR_CRC_POLYNOMIAL $end
$var parameter 32 6! UVM_STDOUT $end
$var parameter 32 7! UVM_LINE_WIDTH $end
$var parameter 32 8! UVM_NUM_LINES $end
$var parameter 32 9! UVM_SMALL_STRING $end
$var parameter 32 :! UVM_LARGE_STRING $end
$var reg 1 ;! uvm_start_uvm_declarations $end
$var integer 32 <! uvm_global_random_seed $end
$var integer 32 =! UVM_UNBOUNDED_CONNECTIONS $end

$scope function uvm_hdl_check_path $end
$var integer 32 >! uvm_hdl_check_path $end
$upscope $end

$scope function uvm_hdl_deposit $end
$var integer 32 ?! uvm_hdl_deposit $end
$var reg 1024 @! value [1023:0] $end
$upscope $end

$scope function uvm_hdl_force $end
$var integer 32 A! uvm_hdl_force $end
$var reg 1024 B! value [1023:0] $end
$upscope $end

$scope task uvm_hdl_force_time $end
$var reg 1024 C! value [1023:0] $end
$var time 64 D! force_time $end
$upscope $end

$scope function uvm_hdl_release $end
$var integer 32 E! uvm_hdl_release $end
$var reg 1024 F! value [1023:0] $end
$upscope $end

$scope function uvm_hdl_read $end
$var integer 32 G! uvm_hdl_read $end
$var reg 1024 H! value [1023:0] $end
$upscope $end

$scope function uvm_dpi_get_next_arg $end
$upscope $end

$scope function uvm_dpi_get_tool_name $end
$upscope $end

$scope function uvm_dpi_get_tool_version $end
$upscope $end

$scope function uvm_re_match $end
$var integer 32 I! uvm_re_match $end
$var integer 32 J! e $end
$var integer 32 K! es $end
$var integer 32 L! s $end
$var integer 32 M! ss $end
$upscope $end

$scope function uvm_dump_re_cache $end
$upscope $end

$scope function uvm_glob_to_re $end
$upscope $end

$scope function uvm_revision_string $end
$upscope $end

$scope function uvm_radix_to_string $end
$var integer 32 N! radix $end
$upscope $end

$scope function uvm_instance_scope $end
$var reg 8 O! c [7:0] $end
$var integer 32 P! pos $end
$upscope $end

$scope function uvm_oneway_hash $end
$var integer 32 Q! uvm_oneway_hash $end
$var integer 32 R! seed $end
$var reg 1 S! msb $end
$var reg 8 T! current_byte [7:0] $end
$var reg 32 U! crc1 [31:0] $end
$upscope $end

$scope function uvm_create_random_seed $end
$var integer 32 V! uvm_create_random_seed $end
$upscope $end

$scope function uvm_object_value_str $end
$upscope $end

$scope function uvm_leaf_scope $end
$var reg 8 W! scope_separator [7:0] $end
$var reg 8 X! bracket_match [7:0] $end
$var integer 32 Y! pos $end
$var integer 32 Z! bmatches $end
$upscope $end

$scope function uvm_vector_to_string $end
$var reg 4096 [! value [4095:0] $end
$var integer 32 \! size $end
$var integer 32 ]! radix $end
$upscope $end

$scope function uvm_get_array_index_int $end
$var integer 32 ^! uvm_get_array_index_int $end
$var reg 1 _! is_wildcard $end
$var integer 32 `! i $end
$upscope $end

$scope function uvm_get_array_index_string $end
$var reg 1 a! is_wildcard $end
$var integer 32 b! i $end
$upscope $end

$scope function uvm_is_array $end
$var reg 1 c! uvm_is_array $end
$upscope $end

$scope function uvm_has_wildcard $end
$upscope $end

$scope task run_test $end
$upscope $end

$scope function global_stop_request $end
$upscope $end

$scope function set_global_timeout $end
$var time 64 d! timeout $end
$var reg 1 e! overridable $end
$upscope $end

$scope function set_global_stop_timeout $end
$var time 64 f! timeout $end
$upscope $end

$scope function uvm_report_enabled $end
$var reg 1 g! uvm_report_enabled $end
$var integer 32 h! verbosity $end
$var reg 2 i! severity [1:0] $end
$upscope $end

$scope function uvm_report $end
$var reg 2 j! severity [1:0] $end
$var integer 32 k! verbosity $end
$var integer 32 l! line $end
$upscope $end

$scope function uvm_report_info $end
$var integer 32 m! verbosity $end
$var integer 32 n! line $end
$upscope $end

$scope function uvm_report_warning $end
$var integer 32 o! verbosity $end
$var integer 32 p! line $end
$upscope $end

$scope function uvm_report_error $end
$var integer 32 q! verbosity $end
$var integer 32 r! line $end
$upscope $end

$scope function uvm_report_fatal $end
$var integer 32 s! verbosity $end
$var integer 32 t! line $end
$upscope $end

$scope function uvm_string_to_severity $end
$var reg 1 u! uvm_string_to_severity $end
$var reg 2 v! sev [1:0] $end
$upscope $end

$scope function uvm_string_to_action $end
$upscope $end

$scope function set_config_int $end
$var reg 4096 w! value [4095:0] $end
$upscope $end

$scope function set_config_object $end
$var reg 1 x! clone $end
$upscope $end

$scope function set_config_string $end
$upscope $end

$scope function uvm_is_match $end
$var reg 1 y! uvm_is_match $end
$upscope $end

$scope function uvm_string_to_bits $end
$var reg 115200 z! uvm_string_to_bits [115199:0] $end
$upscope $end

$scope function uvm_bits_to_string $end
$var reg 115200 {! str [115199:0] $end
$upscope $end

$scope task uvm_wait_for_nba_region $end
$var integer 32 |! nba $end
$var integer 32 }! next_nba $end
$upscope $end

$scope function uvm_split_string $end
$upscope $end

$scope function uvm_hdl_concat2string $end
$upscope $end
$upscope $end

$scope begin async_fifo_pkg $end
$upscope $end

$scope begin std $end
$upscope $end
$enddefinitions $end
#0
$dumpvars
0!
0"
0#
0$
b0 \
b0 ]
b0 _
b0 `
1e
b0 f
b0 g
0l
b0 m
b0 n
0a!
0c!
0u!
b0 v!
0y!
bx z!
bx {!
bx @!
bx B!
bx C!
bx F!
bx H!
1;!
1S!
b1110001 T!
b1011011101100000000101110010101 U!
bx [!
0_!
0e!
0g!
b0 i!
b0 j!
bx w!
0x!
b1000 %
b100 &
b101 [
b101 ^
b1000 a
b100 b
b10000 c
b100 d
b100 k
b10000000000 r
b1000000000000 s
b1111000000000000000000000000 t
b10001 u
b10101010101 v
b101010101 w
b101010101 x
b0 y
b1 z
b10 {
b100 |
b1000 }
b10000 ~
b100000 !!
b1000000 "!
b10000000 #!
b100000000 $!
b1000000000 %!
b10000000000000 &!
b100000000000000 '!
b1000000000000000 (!
b10000000000000000 )!
b100000000000000000 *!
b100000000000000001 +!
b100000000000000010 ,!
b100000000000000011 -!
b100000000000000100 .!
b100000000000000101 /!
b100000000000000110 0!
b100000000000000110 1!
b100000000000000111 2!
b100000000000001000 3!
b100000000000001000 4!
b100110000010001110110110110 5!
b1 6!
b1111000 7!
b1111000 8!
b1110111111 9!
b11100000111111111 :!
b0 h
b0 i
b0 o
b0 p
b0 I!
b1 J!
b0 K!
b0 L!
b0 M!
b0 N!
b0 W!
b0 X!
b0 Y!
b0 Z!
b0 b!
b0 >!
b0 ?!
b0 A!
b0 E!
b0 G!
b1101001011000001111100000011110 <!
b101110 O!
b111 P!
b11010100010101010100011111000010 Q!
b1101001011000001111100000011110 R!
b1001100111110000111010001111100 V!
b0 \!
b0 ]!
b0 ^!
b0 `!
b111110100 h!
b0 k!
b0 l!
b0 m!
b0 n!
b0 o!
b0 p!
b0 q!
b0 r!
b0 s!
b0 t!
b100011 |!
b100011 }!
b11111111111111111111111111111111 =!
bx D!
bx d!
bx f!
0B
0A
0@
0?
0F
0E
0D
0C
0K
0J
0I
0H
0G
0P
0O
0N
0M
0L
0U
0T
0S
0R
0Q
0Z
0Y
0X
0W
0V
1j
0q
0>
0=
0;
0:
x.
x-
x,
x+
x*
x)
x(
x'
0/
10
08
07
06
05
04
03
02
01
09
0<
$end
#5
1!
1:
#10
1"
0!
1=
0:
#15
1!
1:
#20
1#
0"
0!
1>
0=
0:
#25
1!
1:
b100100 }!
b100100 |!
15
14
13
12
19
b1 p
b1 o
#30
1"
0!
1=
0:
#35
1!
1:
0.
0-
0,
1+
1*
1)
1(
0'
#40
1$
0"
0!
1;
0=
0:
#45
1!
1:
b1 m
b1 n
1B
b10 p
1K
b11 o
b100101 }!
b10111110111001010101000001110101 V!
b10111110111001010101000001111000 V!
b100101 |!
18
05
04
03
02
#50
1"
0!
1=
0:
b1 `
b100110 }!
b100110 |!
1<
#55
1!
1:
b11 m
b10 n
0B
1A
b11 p
1J
b10 o
#60
0"
0!
0=
0:
#65
1!
1:
b10 m
b11 n
1B
b100 p
0K
b110 o
b100111 }!
b10111110111001010101000001111100 V!
b10111110111001010101000010000001 V!
b100111 |!
13
12
11
#70
1"
0!
1=
0:
b10 `
b1 _
1Z
0j
#75
1!
1:
b110 m
b100 n
0B
0A
1@
b101 p
1I
b111 o
#80
0"
0!
0=
0:
#85
1!
1:
b111 m
b101 n
1B
b110 p
1K
b101 o
b101000 }!
b10111110111001010101000010000111 V!
b10111110111001010101000010001110 V!
b101000 |!
16
14
01
#90
1"
0!
1=
0:
0e
b111 `
b10 _
00
0Z
1Y
b1 i
b1 h
b101001 }!
b11010100010101010100011111000101 V!
b11010100010101010100011111001000 V!
b101001 |!
#95
1!
1:
b101 m
b110 n
0B
1A
b111 p
0J
b100 o
#100
0"
0!
0=
0:
#105
1!
1:
b100 m
b111 n
1B
b1000 p
0K
b1100 o
b101010 }!
b10111110111001010101000010010110 V!
b10111110111001010101000010011111 V!
b101010 |!
06
04
03
#110
1"
0!
1=
0:
b1 f
b1 g
b100 `
b111 _
1Z
1X
1F
b10 i
1P
b11 h
1.
0+
0*
0)
0(
#115
1!
1:
b1 ]
b1100 m
b1000 n
0B
0A
0@
1?
b1001 p
1H
b1101 o
#120
0"
0!
0=
0:
#125
1!
1:
b1101 m
b1001 n
b1 \
1U
1B
b1010 p
1K
b1111 o
b101011 }!
b10111110111001010101000010101001 V!
b10111110111001010101000010110100 V!
b101011 |!
16
15
11
#130
1"
0!
1=
0:
b1101 `
b100 _
b11 f
b10 g
0F
1E
b11 i
1O
0Z
0Y
b10 h
b101100 }!
b11010100010101010100011111001100 V!
b11010100010101010100011111010001 V!
b101100 |!
#135
1!
1:
b11 ]
b1111 m
b1010 n
0B
1A
b1011 p
1J
b1110 o
#140
0"
0!
0=
0:
#145
1!
1:
b1110 m
b1011 n
b11 \
1T
1B
b1100 p
0K
b1010 o
b101101 }!
b10111110111001010101000011000000 V!
b10111110111001010101000011001101 V!
b101101 |!
08
17
06
14
13
#150
1"
0!
1=
0:
b10 f
b11 g
b1110 `
b1101 _
1Z
1W
1F
b100 i
0P
b110 h
1)
1(
1'
#155
1!
1:
b10 ]
b1010 m
b1100 n
0B
0A
1@
b1101 p
0I
b1011 o
#160
0"
0!
0=
0:
#165
1!
1:
b1011 m
b1101 n
b10 \
0U
1B
b1110 p
1K
b1001 o
b101110 }!
b10111110111001010101000011011011 V!
b10111110111001010101000011101010 V!
b101110 |!
18
07
04
02
01
#170
1"
0!
1=
0:
b1011 `
b1110 _
b110 f
b100 g
0F
0E
1D
b101 i
1N
0Z
1Y
b111 h
b101111 }!
b11010100010101010100011111010111 V!
b11010100010101010100011111011110 V!
b101111 |!
#175
1!
1:
b110 ]
b1001 m
b1110 n
0B
1A
b1111 p
0J
b1000 o
#180
0"
0!
0=
0:
#185
1!
1:
b1000 m
b1111 n
b110 \
1S
1B
b10000 p
0K
b11000 o
b110000 }!
b10111110111001010101000011111010 V!
b10111110111001010101000100001011 V!
b110000 |!
08
14
03
#190
1"
0!
1=
0:
b111 f
b101 g
b1000 `
b1011 _
1Z
0X
1F
b110 i
1P
b101 h
1,
1*
0'
#195
1!
1:
b111 ]
b11000 m
b10000 n
0B
0A
0@
0?
b10001 p
1G
b11001 o
#200
0"
0!
0=
0:
#205
1!
1:
b11001 m
b10001 n
b111 \
1U
1B
b10010 p
1K
b11011 o
b110001 }!
b10111110111001010101000100011101 V!
b10111110111001010101000100110000 V!
b110001 |!
18
16
13
#210
1"
0!
1=
0:
b11001 `
b1000 _
b101 f
b110 g
0F
1E
b111 i
0O
0Z
0Y
b100 h
b110010 }!
b11010100010101010100011111100110 V!
b11010100010101010100011111101111 V!
b110010 |!
#215
1!
1:
b101 ]
b11011 m
b10010 n
0B
1A
b10011 p
1J
b11010 o
#220
0"
0!
0=
0:
#225
1!
1:
b11010 m
b10011 n
b101 \
0T
1B
b10100 p
0K
b11110 o
b110011 }!
b10111110111001010101000101000100 V!
b10111110111001010101000101011001 V!
b110011 |!
12
11
#230
1"
0!
1=
0:
b100 f
b111 g
b11010 `
b11001 _
1Z
1V
1F
b1000 i
0P
b1100 h
0,
0*
0)
#235
1!
1:
b100 ]
b11110 m
b10100 n
0B
0A
1@
b10101 p
1I
b11111 o
#240
0"
0!
0=
0:
#245
1!
1:
b11111 m
b10101 n
b100 \
0U
1B
b10110 p
1K
b11101 o
b110100 }!
b10111110111001010101000101101111 V!
b10111110111001010101000110000110 V!
b110100 |!
08
06
05
02
#250
1"
0!
1=
0:
b11111 `
b11010 _
b1100 f
b1000 g
0F
0E
0D
1C
b1001 i
1M
0Z
1Y
b1101 h
b110101 }!
b11010100010101010100011111111001 V!
b11010100010101010100100000000100 V!
b110101 |!
#255
1!
1:
b1100 ]
b11101 m
b10110 n
0B
1A
b10111 p
0J
b11100 o
1q
#260
0"
0!
0=
0:
#265
1!
1:
1l
b11100 m
b10111 n
b1100 \
1/
1R
1B
0K
0q
b110110 }!
b10111110111001010101000110011110 V!
b10111110111001010101000110110111 V!
b110110 |!
17
16
15
12
#270
1"
0!
1=
0:
b1101 f
b1001 g
b11100 `
b11111 _
1Z
1X
1F
b1010 i
1P
b1111 h
1,
1+
1'
#275
1!
1:
b1101 ]
0l
b11000 p
0/
b10100 o
1q
#280
0"
0!
0=
0:
#285
1!
1:
b10100 m
b11000 n
1l
b1101 \
1/
1U
0B
0A
0@
1?
0H
0q
b110111 }!
b10111110111001010101000111010001 V!
b10111110111001010101000111101100 V!
b110111 |!
18
07
06
05
04
#290
1"
0!
1=
0:
b10100 `
b11100 _
b1111 f
b1010 g
0F
1E
b1011 i
1O
0Z
0Y
b1110 h
b111000 }!
b11010100010101010100100000010000 V!
b11010100010101010100100000011101 V!
b111000 |!
#295
1!
1:
b1111 ]
0l
b11001 p
0/
b10101 o
1q
#300
0"
0!
0=
0:
#305
1!
1:
b10101 m
b11001 n
1l
b1111 \
1/
1T
1B
1K
0q
b111001 }!
b10111110111001010101001000001000 V!
b10111110111001010101001000100101 V!
b111001 |!
15
14
#310
1"
0!
1=
0:
b1110 f
b1011 g
b10101 `
b10100 _
0W
1F
b1100 i
0P
b1010 h
0.
1-
0,
1*
1)
#315
1!
1:
b1110 ]
0l
b11010 p
0/
b10111 o
1q
#320
0"
0!
0=
0:
#325
1!
1:
b10111 m
b11010 n
1l
b1110 \
1/
0U
0B
1A
1J
0q
b111010 }!
b10111110111001010101001001000011 V!
b10111110111001010101001001100010 V!
b111010 |!
08
17
04
02
01
#330
1"
0!
1=
0:
b10111 `
b10101 _
b1010 f
b1100 g
0F
0E
1D
b1101 i
0N
1Z
b1011 h
b111011 }!
b11010100010101010100100000101011 V!
b11010100010101010100100000111010 V!
b111011 |!
#335
1!
1:
b1010 ]
0l
b11011 p
0/
b10110 o
1q
#340
0"
0!
0=
0:
#345
1!
1:
b10110 m
b11011 n
1l
b1010 \
1/
0S
1B
0K
0q
b111100 }!
b10111110111001010101001010000010 V!
b10111110111001010101001010100011 V!
b111100 |!
14
#350
1"
0!
1=
0:
b1011 f
b1101 g
b10110 `
b10111 _
1Y
1F
b1110 i
1P
b1001 h
1.
0-
0*
0(
0'
#355
1!
1:
b1011 ]
0l
b11100 p
0/
b10010 o
1q
#360
0"
0!
0=
0:
#365
1!
1:
b10010 m
b11100 n
1l
b1011 \
1/
1U
0B
0A
1@
0I
0q
b111101 }!
b10111110111001010101001011000101 V!
b10111110111001010101001011101000 V!
b111101 |!
05
#370
1"
0!
1=
0:
b10010 `
b10110 _
b1001 f
b1110 g
0F
1E
b1111 i
0O
0Z
b1000 h
b111110 }!
b11010100010101010100100001001010 V!
b11010100010101010100100001011011 V!
b111110 |!
#375
1!
1:
b1001 ]
0l
b11101 p
0/
b10011 o
1q
#380
0"
0!
0=
0:
#385
1!
1:
b10011 m
b11101 n
1l
b1001 \
1/
0T
1B
1K
0q
b111111 }!
b10111110111001010101001100001100 V!
b10111110111001010101001100110001 V!
b111111 |!
07
16
03
11
#390
1"
0!
1=
0:
b1000 f
b1111 g
b10011 `
b10010 _
0X
1F
b10000 i
0P
b11000 h
0.
1*
0)
#395
1!
1:
b1000 ]
0l
b11110 p
0/
b10001 o
1q
#400
0"
0!
0=
0:
#405
1!
1:
b10001 m
b11110 n
1l
b1000 \
1/
0U
0B
1A
0J
0q
b1000000 }!
b10111110111001010101001101010111 V!
b10111110111001010101001101111110 V!
b1000000 |!
12
#410
1"
0!
1=
0:
b10001 `
b10011 _
b11000 f
b10000 g
0F
0E
0D
0C
b10001 i
1L
1Z
b11001 h
b1000001 }!
b11010100010101010100100001101101 V!
b11010100010101010100100010000000 V!
b1000001 |!
#415
1!
1:
b11000 ]
0l
b11111 p
0/
b10000 o
1q
#420
0"
0!
0=
0:
#425
1!
1:
b10000 m
b11111 n
1l
b11000 \
1/
1Q
1B
0K
0q
b1000010 }!
b10111110111001010101001110100110 V!
b10111110111001010101001111001111 V!
b1000010 |!
18
04
13
02
01
#430
1"
0!
1=
0:
b11001 f
b10001 g
b10000 `
b10001 _
0Y
1F
b10010 i
1P
b11011 h
1.
1,
1)
#435
1!
1:
b11001 ]
0l
b0 p
0/
b0 o
1q
#440
0"
0!
0=
0:
#445
1!
1:
b0 m
b0 n
1l
b11001 \
1/
1U
0B
0A
0@
0?
0G
0q
b1000011 }!
b10111110111001010101001111111001 V!
b10111110111001010101010000100100 V!
b1000011 |!
08
15
14
03
#450
1"
0!
1=
0:
b0 `
b10000 _
b11011 f
b10010 g
0F
1E
b10011 i
1O
0Z
b11010 h
b1000100 }!
b11010100010101010100100010010100 V!
b11010100010101010100100010101001 V!
b1000100 |!
#455
1!
1:
b11011 ]
0l
b1 p
0/
b1 o
1q
#460
0"
0!
0=
0:
#465
1!
1:
b1 m
b1 n
1l
b11011 \
1/
1T
1B
1K
0q
b1000101 }!
b10111110111001010101010001010000 V!
b10111110111001010101010001111101 V!
b1000101 |!
17
04
#470
1"
0!
1=
0:
b11010 f
b10011 g
b1 `
b0 _
0V
1F
b10100 i
0P
b11110 h
1(
1'
#475
1!
1:
b11010 ]
0l
b10 p
0/
b11 o
1q
#480
0"
0!
0=
0:
#485
1!
1:
b11 m
b10 n
1l
b11010 \
1/
0U
0B
1A
1J
0q
b1000110 }!
b10111110111001010101010010101011 V!
b10111110111001010101010011011010 V!
b1000110 |!
07
06
05
11
#490
1"
0!
1=
0:
b11 `
b1 _
b11110 f
b10100 g
0F
0E
1D
b10101 i
1N
1Z
b11111 h
b1000111 }!
b11010100010101010100100010111111 V!
b11010100010101010100100011010110 V!
b1000111 |!
#495
1!
1:
b11110 ]
0l
b11 p
0/
b10 o
1q
#500
0"
0!
0=
0:
#505
1!
1:
b10 m
b11 n
1l
b11110 \
1/
1S
1B
0K
0q
b1001000 }!
b10111110111001010101010100001010 V!
b10111110111001010101010100111011 V!
b1001000 |!
17
16
15
13
12
01
#510
1"
0!
1=
0:
b11111 f
b10101 g
b10 `
b11 _
1Y
1F
b10110 i
1P
b11101 h
0.
0,
0+
0(
#515
1!
1:
b11111 ]
0l
b100 p
0/
b110 o
1q
#520
0"
0!
0=
0:
#525
1!
1:
b110 m
b100 n
1l
b11111 \
1/
1U
0B
0A
1@
1I
0q
b1001001 }!
b10111110111001010101010101101101 V!
b10111110111001010101010110100000 V!
b1001001 |!
05
14
#530
1"
0!
1=
0:
b110 `
b10 _
b11101 f
b10110 g
0F
1E
b10111 i
0O
0Z
b11100 h
b1001010 }!
b11010100010101010100100011101110 V!
b11010100010101010100100100000111 V!
b1001010 |!
#535
1!
1:
b11101 ]
0l
b101 p
0/
b111 o
1q
#540
0"
0!
0=
0:
#545
1!
1:
b111 m
b101 n
1l
b11101 \
1/
0T
1B
1K
0q
b1001011 }!
b10111110111001010101010111010100 V!
b10111110111001010101011000001001 V!
b1001011 |!
18
15
04
03
#550
1"
0!
1=
0:
b11100 f
b10111 g
b111 `
b110 _
1X
1F
b11000 i
0P
b10100 h
1-
1,
1+
1(
#555
1!
1:
b11100 ]
0l
b110 p
0/
b101 o
1q
#560
0"
0!
0=
0:
#565
1!
1:
b101 m
b110 n
1l
b11100 \
1/
0U
0B
1A
0J
0q
b1001100 }!
b10111110111001010101011000111111 V!
b10111110111001010101011001110110 V!
b1001100 |!
08
05
02
#570
1"
0!
1=
0:
b101 `
b111 _
b10100 f
b11000 g
0F
0E
0D
1C
b11001 i
0M
1Z
b10101 h
1.
0-
0,
0+
0*
b1001101 }!
b11010100010101010100100100100001 V!
b11010100010101010100100100111100 V!
b1001101 |!
#575
1!
1:
b10100 ]
0l
b111 p
0/
b100 o
1q
#580
0"
0!
0=
0:
#585
1!
1:
b100 m
b111 n
1l
b10100 \
1/
0R
1B
0K
0q
b1001110 }!
b10111110111001010101011010101110 V!
b10111110111001010101011011100111 V!
b1001110 |!
18
07
15
12
#590
1"
0!
1=
0:
b10101 f
b11001 g
b100 `
b101 _
0Y
1F
b11010 i
1P
b10111 h
1+
1*
#595
1!
1:
b10101 ]
0l
b1000 p
0/
b1100 o
1q
#600
0"
0!
0=
0:
#605
1!
1:
b1100 m
b1000 n
1l
b10101 \
1/
1U
0B
0A
0@
1?
1H
0q
b1001111 }!
b10111110111001010101011100100001 V!
b10111110111001010101011101011100 V!
b1001111 |!
08
17
06
13
11
#610
1"
0!
1=
0:
b1100 `
b100 _
b10111 f
b11010 g
0F
1E
b11011 i
1O
0Z
b10110 h
0.
1-
0*
0(
0'
b1010000 }!
b11010100010101010100100101011000 V!
b11010100010101010100100101110101 V!
b1010000 |!
#615
1!
1:
b10111 ]
0l
b1001 p
0/
b1101 o
1q
#620
0"
0!
0=
0:
#625
1!
1:
b1101 m
b1001 n
1l
b10111 \
1/
1T
1B
1K
0q
b1010001 }!
b1010001 |!
#630
1"
0!
1=
0:
b10110 f
b11011 g
b1101 `
b1100 _
1W
1F
b11100 i
0P
b10010 h
1*
#635
1!
1:
b10110 ]
0l
b1010 p
0/
b1111 o
1q
#640
0"
0!
0=
0:
#645
1!
1:
b1111 m
b1010 n
1l
b10110 \
1/
0U
0B
1A
1J
0q
#650
1"
0!
1=
0:
b1111 `
b1101 _
b10010 f
b11100 g
0F
0E
1D
b11101 i
0N
1Z
b10011 h
0+
b1010010 }!
b11010100010101010100100110010011 V!
b11010100010101010100100110110010 V!
b1010010 |!
#655
1!
1:
b10010 ]
0l
b1011 p
0/
b1110 o
1q
#660
0"
0!
0=
0:
#665
1!
1:
b1110 m
b1011 n
1l
b10010 \
1/
0S
1B
0K
0q
#670
1"
0!
1=
0:
b10011 f
b11101 g
b1110 `
b1111 _
1Y
1F
b11110 i
1P
b10001 h
0-
1,
0)
1'
#675
1!
1:
b10011 ]
0l
b1100 p
0/
b1010 o
1q
#680
0"
0!
0=
0:
#685
1!
1:
b1010 m
b1100 n
1l
b10011 \
1/
1U
0B
0A
1@
0I
0q
