src/wave.vcd
$date
	Mon Oct 13 12:44:17 2025
$end
$version
	QuestaSim Version 10.6c
$end
$timescale
	1ns
$end

$scope module uvm_root $end
$upscope $end

$scope module top $end

$scope module dut $end

$scope module fifomem $end
$upscope $end
$upscope $end
$upscope $end

$scope begin uvm_pkg $end
$var parameter 32 ! UVM_HDL_MAX_WIDTH $end
$var parameter 32 " UVM_STREAMBITS $end
$var parameter 32 # UVM_RADIX $end
$var parameter 32 $ UVM_MACRO_NUMFLAGS $end
$var parameter 32 % UVM_DEFAULT $end
$var parameter 32 & UVM_ALL_ON $end
$var parameter 32 ' UVM_FLAGS_ON $end
$var parameter 32 ( UVM_FLAGS_OFF $end
$var parameter 32 ) UVM_COPY $end
$var parameter 32 * UVM_NOCOPY $end
$var parameter 32 + UVM_COMPARE $end
$var parameter 32 , UVM_NOCOMPARE $end
$var parameter 32 - UVM_PRINT $end
$var parameter 32 . UVM_NOPRINT $end
$var parameter 32 / UVM_RECORD $end
$var parameter 32 0 UVM_NORECORD $end
$var parameter 32 1 UVM_PACK $end
$var parameter 32 2 UVM_NOPACK $end
$var parameter 32 3 UVM_PHYSICAL $end
$var parameter 32 4 UVM_ABSTRACT $end
$var parameter 32 5 UVM_READONLY $end
$var parameter 32 6 UVM_NODEFPRINT $end
$var parameter 32 7 UVM_MACRO_EXTRAS $end
$var parameter 32 8 UVM_FLAGS $end
$var parameter 32 9 UVM_UNPACK $end
$var parameter 32 : UVM_CHECK_FIELDS $end
$var parameter 32 ; UVM_END_DATA_EXTRA $end
$var parameter 32 < UVM_START_FUNCS $end
$var parameter 32 = UVM_SET $end
$var parameter 32 > UVM_SETINT $end
$var parameter 32 ? UVM_SETOBJ $end
$var parameter 32 @ UVM_SETSTR $end
$var parameter 32 A UVM_END_FUNCS $end
$var parameter 32 B UVM_STR_CRC_POLYNOMIAL $end
$var parameter 32 C UVM_STDOUT $end
$var parameter 32 D UVM_LINE_WIDTH $end
$var parameter 32 E UVM_NUM_LINES $end
$var parameter 32 F UVM_SMALL_STRING $end
$var parameter 32 G UVM_LARGE_STRING $end
$var reg 1 H uvm_start_uvm_declarations $end
$var integer 32 I uvm_global_random_seed $end
$var integer 32 J UVM_UNBOUNDED_CONNECTIONS $end

$scope function uvm_hdl_check_path $end
$var integer 32 K uvm_hdl_check_path $end
$upscope $end

$scope function uvm_hdl_deposit $end
$var integer 32 L uvm_hdl_deposit $end
$var reg 1024 M value [1023:0] $end
$upscope $end

$scope function uvm_hdl_force $end
$var integer 32 N uvm_hdl_force $end
$var reg 1024 O value [1023:0] $end
$upscope $end

$scope task uvm_hdl_force_time $end
$var reg 1024 P value [1023:0] $end
$var time 64 Q force_time $end
$upscope $end

$scope function uvm_hdl_release $end
$var integer 32 R uvm_hdl_release $end
$var reg 1024 S value [1023:0] $end
$upscope $end

$scope function uvm_hdl_read $end
$var integer 32 T uvm_hdl_read $end
$var reg 1024 U value [1023:0] $end
$upscope $end

$scope function uvm_dpi_get_next_arg $end
$upscope $end

$scope function uvm_dpi_get_tool_name $end
$upscope $end

$scope function uvm_dpi_get_tool_version $end
$upscope $end

$scope function uvm_re_match $end
$var integer 32 V uvm_re_match $end
$var integer 32 W e $end
$var integer 32 X es $end
$var integer 32 Y s $end
$var integer 32 Z ss $end
$upscope $end

$scope function uvm_dump_re_cache $end
$upscope $end

$scope function uvm_glob_to_re $end
$upscope $end

$scope function uvm_revision_string $end
$upscope $end

$scope function uvm_radix_to_string $end
$var integer 32 [ radix $end
$upscope $end

$scope function uvm_instance_scope $end
$var reg 8 \ c [7:0] $end
$var integer 32 ] pos $end
$upscope $end

$scope function uvm_oneway_hash $end
$var integer 32 ^ uvm_oneway_hash $end
$var integer 32 _ seed $end
$var reg 1 ` msb $end
$var reg 8 a current_byte [7:0] $end
$var reg 32 b crc1 [31:0] $end
$upscope $end

$scope function uvm_create_random_seed $end
$var integer 32 c uvm_create_random_seed $end
$upscope $end

$scope function uvm_object_value_str $end
$upscope $end

$scope function uvm_leaf_scope $end
$var reg 8 d scope_separator [7:0] $end
$var reg 8 e bracket_match [7:0] $end
$var integer 32 f pos $end
$var integer 32 g bmatches $end
$upscope $end

$scope function uvm_vector_to_string $end
$var reg 4096 h value [4095:0] $end
$var integer 32 i size $end
$var integer 32 j radix $end
$upscope $end

$scope function uvm_get_array_index_int $end
$var integer 32 k uvm_get_array_index_int $end
$var reg 1 l is_wildcard $end
$var integer 32 m i $end
$upscope $end

$scope function uvm_get_array_index_string $end
$var reg 1 n is_wildcard $end
$var integer 32 o i $end
$upscope $end

$scope function uvm_is_array $end
$var reg 1 p uvm_is_array $end
$upscope $end

$scope function uvm_has_wildcard $end
$upscope $end

$scope task run_test $end
$upscope $end

$scope function global_stop_request $end
$upscope $end

$scope function set_global_timeout $end
$var time 64 q timeout $end
$var reg 1 r overridable $end
$upscope $end

$scope function set_global_stop_timeout $end
$var time 64 s timeout $end
$upscope $end

$scope function uvm_report_enabled $end
$var reg 1 t uvm_report_enabled $end
$var integer 32 u verbosity $end
$var reg 2 v severity [1:0] $end
$upscope $end

$scope function uvm_report $end
$var reg 2 w severity [1:0] $end
$var integer 32 x verbosity $end
$var integer 32 y line $end
$upscope $end

$scope function uvm_report_info $end
$var integer 32 z verbosity $end
$var integer 32 { line $end
$upscope $end

$scope function uvm_report_warning $end
$var integer 32 | verbosity $end
$var integer 32 } line $end
$upscope $end

$scope function uvm_report_error $end
$var integer 32 ~ verbosity $end
$var integer 32 !! line $end
$upscope $end

$scope function uvm_report_fatal $end
$var integer 32 "! verbosity $end
$var integer 32 #! line $end
$upscope $end

$scope function uvm_string_to_severity $end
$var reg 1 $! uvm_string_to_severity $end
$var reg 2 %! sev [1:0] $end
$upscope $end

$scope function uvm_string_to_action $end
$upscope $end

$scope function set_config_int $end
$var reg 4096 &! value [4095:0] $end
$upscope $end

$scope function set_config_object $end
$var reg 1 '! clone $end
$upscope $end

$scope function set_config_string $end
$upscope $end

$scope function uvm_is_match $end
$var reg 1 (! uvm_is_match $end
$upscope $end

$scope function uvm_string_to_bits $end
$var reg 115200 )! uvm_string_to_bits [115199:0] $end
$upscope $end

$scope function uvm_bits_to_string $end
$var reg 115200 *! str [115199:0] $end
$upscope $end

$scope task uvm_wait_for_nba_region $end
$var integer 32 +! nba $end
$var integer 32 ,! next_nba $end
$upscope $end

$scope function uvm_split_string $end
$upscope $end

$scope function uvm_hdl_concat2string $end
$upscope $end
$upscope $end

$scope begin async_fifo_pkg $end
$upscope $end

$scope begin top_sv_unit $end
$upscope $end

$scope begin std $end
$upscope $end
$enddefinitions $end
#0
$dumpvars
0n
0p
0$!
b0 %!
0(!
bx )!
bx *!
bx M
bx O
bx P
bx S
bx U
1H
0`
b1110001 a
b10101011101001110111101110101010 b
bx h
0l
0r
0t
b0 v
b0 w
bx &!
0'!
b10000000000 !
b1000000000000 "
b1111000000000000000000000000 #
b10001 $
b10101010101 %
b101010101 &
b101010101 '
b0 (
b1 )
b10 *
b100 +
b1000 ,
b10000 -
b100000 .
b1000000 /
b10000000 0
b100000000 1
b1000000000 2
b10000000000000 3
b100000000000000 4
b1000000000000000 5
b10000000000000000 6
b100000000000000000 7
b100000000000000001 8
b100000000000000010 9
b100000000000000011 :
b100000000000000100 ;
b100000000000000101 <
b100000000000000110 =
b100000000000000110 >
b100000000000000111 ?
b100000000000001000 @
b100000000000001000 A
b100110000010001110110110110 B
b1 C
b1111000 D
b1111000 E
b1110111111 F
b11100000111111111 G
b0 V
b1 W
b0 X
b0 Y
b0 Z
b0 [
b0 d
b0 e
b0 f
b0 g
b0 o
b0 K
b0 L
b0 N
b0 R
b0 T
b1101001011000001111100000011110 I
b101110 \
b111 ]
b10111110111001010101000001110010 ^
b1101001011000001111100000011110 _
b1001100111110000111010001111100 c
b0 i
b0 j
b0 k
b0 m
b111110100 u
b0 x
b0 y
b0 z
b0 {
b0 |
b0 }
b0 ~
b0 !!
b0 "!
b0 #!
b100011 +!
b100011 ,!
b11111111111111111111111111111111 J
bx Q
bx q
bx s
$end
#25
b100100 ,!
b100100 +!
#45
b100101 ,!
b10111110111001010101000001110101 c
b10111110111001010101000001111000 c
b100101 +!
#50
b100110 ,!
b100110 +!
#65
b100111 ,!
b10111110111001010101000001111100 c
b10111110111001010101000010000001 c
b100111 +!
#85
b101000 ,!
b10111110111001010101000010000111 c
b10111110111001010101000010001110 c
b101000 +!
#105
b101001 ,!
b10111110111001010101000010010110 c
b10111110111001010101000010011111 c
b101001 +!
#125
b101010 ,!
b10111110111001010101000010101001 c
b10111110111001010101000010110100 c
b101010 +!
#145
b101011 ,!
b10111110111001010101000011000000 c
b10111110111001010101000011001101 c
b101011 +!
#165
b101100 ,!
b10111110111001010101000011011011 c
b10111110111001010101000011101010 c
b101100 +!
#185
b101101 ,!
b10111110111001010101000011111010 c
b10111110111001010101000100001011 c
b101101 +!
#205
b101110 ,!
b10111110111001010101000100011101 c
b10111110111001010101000100110000 c
b101110 +!
#225
b101111 ,!
b10111110111001010101000101000100 c
b10111110111001010101000101011001 c
b101111 +!
#245
b110000 ,!
b10111110111001010101000101101111 c
b10111110111001010101000110000110 c
b110000 +!
#265
b110001 ,!
b10111110111001010101000110011110 c
b10111110111001010101000110110111 c
b110001 +!
#285
b110010 ,!
b10111110111001010101000111010001 c
b10111110111001010101000111101100 c
b110010 +!
#305
b110011 ,!
b10111110111001010101001000001000 c
b10111110111001010101001000100101 c
b110011 +!
#325
b110100 ,!
b10111110111001010101001001000011 c
b10111110111001010101001001100010 c
b110100 +!
#345
b110101 ,!
b10111110111001010101001010000010 c
b10111110111001010101001010100011 c
b110101 +!
#365
b110110 ,!
b10111110111001010101001011000101 c
b10111110111001010101001011101000 c
b110110 +!
#385
b110111 ,!
b10111110111001010101001100001100 c
b10111110111001010101001100110001 c
b110111 +!
#405
b111000 ,!
b10111110111001010101001101010111 c
b10111110111001010101001101111110 c
b111000 +!
#425
b111001 ,!
b10111110111001010101001110100110 c
b10111110111001010101001111001111 c
b111001 +!
#445
b111010 ,!
b10111110111001010101001111111001 c
b10111110111001010101010000100100 c
b111010 +!
#465
b111011 ,!
b10111110111001010101010001010000 c
b10111110111001010101010001111101 c
b111011 +!
#485
b111100 ,!
b10111110111001010101010010101011 c
b10111110111001010101010011011010 c
b111100 +!
#505
b111101 ,!
b10111110111001010101010100001010 c
b10111110111001010101010100111011 c
b111101 +!
#525
b111110 ,!
b10111110111001010101010101101101 c
b10111110111001010101010110100000 c
b111110 +!
#545
b111111 ,!
b10111110111001010101010111010100 c
b10111110111001010101011000001001 c
b111111 +!
#565
b1000000 ,!
b10111110111001010101011000111111 c
b10111110111001010101011001110110 c
b1000000 +!
#585
b1000001 ,!
b10111110111001010101011010101110 c
b10111110111001010101011011100111 c
b1000001 +!
#605
b1000010 ,!
b10111110111001010101011100100001 c
b10111110111001010101011101011100 c
b1000010 +!
#625
b1000011 ,!
b10111110111001010101011110011000 c
b10111110111001010101011111010101 c
b1000011 +!
#645
b1000100 ,!
b1000100 +!
