src/wave.vcd
$date
	Tue Oct  7 22:25:10 2025
$end
$version
	QuestaSim Version 10.6c
$end
$timescale
	1ns
$end

$scope module uvm_root $end
$upscope $end

$scope module top $end
$var reg 1 ! wclk $end
$var reg 1 " rclk $end
$var reg 1 # rrst_n $end
$var reg 1 $ wrst_n $end

$scope module dut $end
$var parameter 32 % DSIZE $end
$var parameter 32 & ASIZE $end
$var wire 1 ' rdata [7] $end
$var wire 1 ( rdata [6] $end
$var wire 1 ) rdata [5] $end
$var wire 1 * rdata [4] $end
$var wire 1 + rdata [3] $end
$var wire 1 , rdata [2] $end
$var wire 1 - rdata [1] $end
$var wire 1 . rdata [0] $end
$var wire 1 / wfull $end
$var wire 1 0 rempty $end
$var wire 1 1 wdata [7] $end
$var wire 1 2 wdata [6] $end
$var wire 1 3 wdata [5] $end
$var wire 1 4 wdata [4] $end
$var wire 1 5 wdata [3] $end
$var wire 1 6 wdata [2] $end
$var wire 1 7 wdata [1] $end
$var wire 1 8 wdata [0] $end
$var wire 1 9 winc $end
$var wire 1 : wclk $end
$var wire 1 ; wrst_n $end
$var wire 1 < rinc $end
$var wire 1 = rclk $end
$var wire 1 > rrst_n $end
$var wire 1 ? waddr [3] $end
$var wire 1 @ waddr [2] $end
$var wire 1 A waddr [1] $end
$var wire 1 B waddr [0] $end
$var wire 1 C raddr [3] $end
$var wire 1 D raddr [2] $end
$var wire 1 E raddr [1] $end
$var wire 1 F raddr [0] $end
$var wire 1 G wptr [4] $end
$var wire 1 H wptr [3] $end
$var wire 1 I wptr [2] $end
$var wire 1 J wptr [1] $end
$var wire 1 K wptr [0] $end
$var wire 1 L rptr [4] $end
$var wire 1 M rptr [3] $end
$var wire 1 N rptr [2] $end
$var wire 1 O rptr [1] $end
$var wire 1 P rptr [0] $end
$var wire 1 Q wq2_rptr [4] $end
$var wire 1 R wq2_rptr [3] $end
$var wire 1 S wq2_rptr [2] $end
$var wire 1 T wq2_rptr [1] $end
$var wire 1 U wq2_rptr [0] $end
$var wire 1 V rq2_wptr [4] $end
$var wire 1 W rq2_wptr [3] $end
$var wire 1 X rq2_wptr [2] $end
$var wire 1 Y rq2_wptr [1] $end
$var wire 1 Z rq2_wptr [0] $end

$scope module sync_r2w $end
$var parameter 32 [ SIZE $end
$var reg 5 \ q2 [4:0] $end
$var wire 1 L din [4] $end
$var wire 1 M din [3] $end
$var wire 1 N din [2] $end
$var wire 1 O din [1] $end
$var wire 1 P din [0] $end
$var wire 1 : clk $end
$var wire 1 ; rst_n $end
$var reg 5 ] q1 [4:0] $end
$upscope $end

$scope module sync_w2r $end
$var parameter 32 ^ SIZE $end
$var reg 5 _ q2 [4:0] $end
$var wire 1 G din [4] $end
$var wire 1 H din [3] $end
$var wire 1 I din [2] $end
$var wire 1 J din [1] $end
$var wire 1 K din [0] $end
$var wire 1 = clk $end
$var wire 1 > rst_n $end
$var reg 5 ` q1 [4:0] $end
$upscope $end

$scope module fifomem $end
$var parameter 32 a DATA_SIZE $end
$var parameter 32 b ADDR_SIZE $end
$var parameter 32 c DEPTH $end
$var wire 1 ' rdata [7] $end
$var wire 1 ( rdata [6] $end
$var wire 1 ) rdata [5] $end
$var wire 1 * rdata [4] $end
$var wire 1 + rdata [3] $end
$var wire 1 , rdata [2] $end
$var wire 1 - rdata [1] $end
$var wire 1 . rdata [0] $end
$var wire 1 1 wdata [7] $end
$var wire 1 2 wdata [6] $end
$var wire 1 3 wdata [5] $end
$var wire 1 4 wdata [4] $end
$var wire 1 5 wdata [3] $end
$var wire 1 6 wdata [2] $end
$var wire 1 7 wdata [1] $end
$var wire 1 8 wdata [0] $end
$var wire 1 ? waddr [3] $end
$var wire 1 @ waddr [2] $end
$var wire 1 A waddr [1] $end
$var wire 1 B waddr [0] $end
$var wire 1 C raddr [3] $end
$var wire 1 D raddr [2] $end
$var wire 1 E raddr [1] $end
$var wire 1 F raddr [0] $end
$var wire 1 9 wclk_en $end
$var wire 1 / wfull $end
$var wire 1 : wclk $end
$upscope $end

$scope module rptr_empty $end
$var parameter 32 d ADDR_SIZE $end
$var reg 1 e rempty $end
$var wire 1 C raddr [3] $end
$var wire 1 D raddr [2] $end
$var wire 1 E raddr [1] $end
$var wire 1 F raddr [0] $end
$var reg 5 f rptr [4:0] $end
$var wire 1 V rq2_wptr [4] $end
$var wire 1 W rq2_wptr [3] $end
$var wire 1 X rq2_wptr [2] $end
$var wire 1 Y rq2_wptr [1] $end
$var wire 1 Z rq2_wptr [0] $end
$var wire 1 < rinc $end
$var wire 1 = rclk $end
$var wire 1 > rrst_n $end
$var reg 5 g rbin [4:0] $end
$var wire 1 h rgray_next [4] $end
$var wire 1 i rgray_next [3] $end
$var wire 1 j rgray_next [2] $end
$var wire 1 k rgray_next [1] $end
$var wire 1 l rgray_next [0] $end
$var wire 1 m rbin_next [4] $end
$var wire 1 n rbin_next [3] $end
$var wire 1 o rbin_next [2] $end
$var wire 1 p rbin_next [1] $end
$var wire 1 q rbin_next [0] $end
$var wire 1 r rempty_val $end
$upscope $end

$scope module wptr_full $end
$var parameter 32 s ADDR_SIZE $end
$var reg 1 t wfull $end
$var wire 1 ? waddr [3] $end
$var wire 1 @ waddr [2] $end
$var wire 1 A waddr [1] $end
$var wire 1 B waddr [0] $end
$var reg 5 u wptr [4:0] $end
$var wire 1 Q wq2_rptr [4] $end
$var wire 1 R wq2_rptr [3] $end
$var wire 1 S wq2_rptr [2] $end
$var wire 1 T wq2_rptr [1] $end
$var wire 1 U wq2_rptr [0] $end
$var wire 1 9 winc $end
$var wire 1 : wclk $end
$var wire 1 ; wrst_n $end
$var reg 5 v wbin [4:0] $end
$var wire 1 w wgray_next [4] $end
$var wire 1 x wgray_next [3] $end
$var wire 1 y wgray_next [2] $end
$var wire 1 z wgray_next [1] $end
$var wire 1 { wgray_next [0] $end
$var wire 1 | wbin_next [4] $end
$var wire 1 } wbin_next [3] $end
$var wire 1 ~ wbin_next [2] $end
$var wire 1 !! wbin_next [1] $end
$var wire 1 "! wbin_next [0] $end
$var wire 1 #! wfull_val $end
$upscope $end
$upscope $end
$upscope $end

$scope begin uvm_pkg $end
$var parameter 32 $! UVM_HDL_MAX_WIDTH $end
$var parameter 32 %! UVM_STREAMBITS $end
$var parameter 32 &! UVM_RADIX $end
$var parameter 32 '! UVM_MACRO_NUMFLAGS $end
$var parameter 32 (! UVM_DEFAULT $end
$var parameter 32 )! UVM_ALL_ON $end
$var parameter 32 *! UVM_FLAGS_ON $end
$var parameter 32 +! UVM_FLAGS_OFF $end
$var parameter 32 ,! UVM_COPY $end
$var parameter 32 -! UVM_NOCOPY $end
$var parameter 32 .! UVM_COMPARE $end
$var parameter 32 /! UVM_NOCOMPARE $end
$var parameter 32 0! UVM_PRINT $end
$var parameter 32 1! UVM_NOPRINT $end
$var parameter 32 2! UVM_RECORD $end
$var parameter 32 3! UVM_NORECORD $end
$var parameter 32 4! UVM_PACK $end
$var parameter 32 5! UVM_NOPACK $end
$var parameter 32 6! UVM_PHYSICAL $end
$var parameter 32 7! UVM_ABSTRACT $end
$var parameter 32 8! UVM_READONLY $end
$var parameter 32 9! UVM_NODEFPRINT $end
$var parameter 32 :! UVM_MACRO_EXTRAS $end
$var parameter 32 ;! UVM_FLAGS $end
$var parameter 32 <! UVM_UNPACK $end
$var parameter 32 =! UVM_CHECK_FIELDS $end
$var parameter 32 >! UVM_END_DATA_EXTRA $end
$var parameter 32 ?! UVM_START_FUNCS $end
$var parameter 32 @! UVM_SET $end
$var parameter 32 A! UVM_SETINT $end
$var parameter 32 B! UVM_SETOBJ $end
$var parameter 32 C! UVM_SETSTR $end
$var parameter 32 D! UVM_END_FUNCS $end
$var parameter 32 E! UVM_STR_CRC_POLYNOMIAL $end
$var parameter 32 F! UVM_STDOUT $end
$var parameter 32 G! UVM_LINE_WIDTH $end
$var parameter 32 H! UVM_NUM_LINES $end
$var parameter 32 I! UVM_SMALL_STRING $end
$var parameter 32 J! UVM_LARGE_STRING $end
$var reg 1 K! uvm_start_uvm_declarations $end
$var integer 32 L! uvm_global_random_seed $end
$var integer 32 M! UVM_UNBOUNDED_CONNECTIONS $end

$scope function uvm_hdl_check_path $end
$var integer 32 N! uvm_hdl_check_path $end
$upscope $end

$scope function uvm_hdl_deposit $end
$var integer 32 O! uvm_hdl_deposit $end
$var reg 1024 P! value [1023:0] $end
$upscope $end

$scope function uvm_hdl_force $end
$var integer 32 Q! uvm_hdl_force $end
$var reg 1024 R! value [1023:0] $end
$upscope $end

$scope task uvm_hdl_force_time $end
$var reg 1024 S! value [1023:0] $end
$var time 64 T! force_time $end
$upscope $end

$scope function uvm_hdl_release $end
$var integer 32 U! uvm_hdl_release $end
$var reg 1024 V! value [1023:0] $end
$upscope $end

$scope function uvm_hdl_read $end
$var integer 32 W! uvm_hdl_read $end
$var reg 1024 X! value [1023:0] $end
$upscope $end

$scope function uvm_dpi_get_next_arg $end
$upscope $end

$scope function uvm_dpi_get_tool_name $end
$upscope $end

$scope function uvm_dpi_get_tool_version $end
$upscope $end

$scope function uvm_re_match $end
$var integer 32 Y! uvm_re_match $end
$var integer 32 Z! e $end
$var integer 32 [! es $end
$var integer 32 \! s $end
$var integer 32 ]! ss $end
$upscope $end

$scope function uvm_dump_re_cache $end
$upscope $end

$scope function uvm_glob_to_re $end
$upscope $end

$scope function uvm_revision_string $end
$upscope $end

$scope function uvm_radix_to_string $end
$var integer 32 ^! radix $end
$upscope $end

$scope function uvm_instance_scope $end
$var reg 8 _! c [7:0] $end
$var integer 32 `! pos $end
$upscope $end

$scope function uvm_oneway_hash $end
$var integer 32 a! uvm_oneway_hash $end
$var integer 32 b! seed $end
$var reg 1 c! msb $end
$var reg 8 d! current_byte [7:0] $end
$var reg 32 e! crc1 [31:0] $end
$upscope $end

$scope function uvm_create_random_seed $end
$var integer 32 f! uvm_create_random_seed $end
$upscope $end

$scope function uvm_object_value_str $end
$upscope $end

$scope function uvm_leaf_scope $end
$var reg 8 g! scope_separator [7:0] $end
$var reg 8 h! bracket_match [7:0] $end
$var integer 32 i! pos $end
$var integer 32 j! bmatches $end
$upscope $end

$scope function uvm_vector_to_string $end
$var reg 4096 k! value [4095:0] $end
$var integer 32 l! size $end
$var integer 32 m! radix $end
$upscope $end

$scope function uvm_get_array_index_int $end
$var integer 32 n! uvm_get_array_index_int $end
$var reg 1 o! is_wildcard $end
$var integer 32 p! i $end
$upscope $end

$scope function uvm_get_array_index_string $end
$var reg 1 q! is_wildcard $end
$var integer 32 r! i $end
$upscope $end

$scope function uvm_is_array $end
$var reg 1 s! uvm_is_array $end
$upscope $end

$scope function uvm_has_wildcard $end
$upscope $end

$scope task run_test $end
$upscope $end

$scope function global_stop_request $end
$upscope $end

$scope function set_global_timeout $end
$var time 64 t! timeout $end
$var reg 1 u! overridable $end
$upscope $end

$scope function set_global_stop_timeout $end
$var time 64 v! timeout $end
$upscope $end

$scope function uvm_report_enabled $end
$var reg 1 w! uvm_report_enabled $end
$var integer 32 x! verbosity $end
$var reg 2 y! severity [1:0] $end
$upscope $end

$scope function uvm_report $end
$var reg 2 z! severity [1:0] $end
$var integer 32 {! verbosity $end
$var integer 32 |! line $end
$upscope $end

$scope function uvm_report_info $end
$var integer 32 }! verbosity $end
$var integer 32 ~! line $end
$upscope $end

$scope function uvm_report_warning $end
$var integer 32 !" verbosity $end
$var integer 32 "" line $end
$upscope $end

$scope function uvm_report_error $end
$var integer 32 #" verbosity $end
$var integer 32 $" line $end
$upscope $end

$scope function uvm_report_fatal $end
$var integer 32 %" verbosity $end
$var integer 32 &" line $end
$upscope $end

$scope function uvm_string_to_severity $end
$var reg 1 '" uvm_string_to_severity $end
$var reg 2 (" sev [1:0] $end
$upscope $end

$scope function uvm_string_to_action $end
$upscope $end

$scope function set_config_int $end
$var reg 4096 )" value [4095:0] $end
$upscope $end

$scope function set_config_object $end
$var reg 1 *" clone $end
$upscope $end

$scope function set_config_string $end
$upscope $end

$scope function uvm_is_match $end
$var reg 1 +" uvm_is_match $end
$upscope $end

$scope function uvm_string_to_bits $end
$var reg 115200 ," uvm_string_to_bits [115199:0] $end
$upscope $end

$scope function uvm_bits_to_string $end
$var reg 115200 -" str [115199:0] $end
$upscope $end

$scope task uvm_wait_for_nba_region $end
$var integer 32 ." nba $end
$var integer 32 /" next_nba $end
$upscope $end

$scope function uvm_split_string $end
$upscope $end

$scope function uvm_hdl_concat2string $end
$upscope $end
$upscope $end

$scope begin async_fifo_pkg $end
$upscope $end

$scope begin std $end
$upscope $end
$enddefinitions $end
#0
$dumpvars
0!
0"
0#
0$
b0 \
b0 ]
b0 _
b0 `
0q!
0s!
1e
b0 f
b0 g
0t
b0 u
b0 v
0'"
b0 ("
0+"
bx ,"
bx -"
bx P!
bx R!
bx S!
bx V!
bx X!
1K!
1c!
b1110001 d!
b1011011101100000000101110010101 e!
bx k!
0o!
0u!
0w!
b0 y!
b0 z!
bx )"
0*"
b1000 %
b100 &
b101 [
b101 ^
b1000 a
b100 b
b10000 c
b100 d
b100 s
b10000000000 $!
b1000000000000 %!
b1111000000000000000000000000 &!
b10001 '!
b10101010101 (!
b101010101 )!
b101010101 *!
b0 +!
b1 ,!
b10 -!
b100 .!
b1000 /!
b10000 0!
b100000 1!
b1000000 2!
b10000000 3!
b100000000 4!
b1000000000 5!
b10000000000000 6!
b100000000000000 7!
b1000000000000000 8!
b10000000000000000 9!
b100000000000000000 :!
b100000000000000001 ;!
b100000000000000010 <!
b100000000000000011 =!
b100000000000000100 >!
b100000000000000101 ?!
b100000000000000110 @!
b100000000000000110 A!
b100000000000000111 B!
b100000000000001000 C!
b100000000000001000 D!
b100110000010001110110110110 E!
b1 F!
b1111000 G!
b1111000 H!
b1110111111 I!
b11100000111111111 J!
b0 Y!
b1 Z!
b0 [!
b0 \!
b0 ]!
b0 ^!
b0 g!
b0 h!
b0 i!
b0 j!
b0 r!
b0 N!
b0 O!
b0 Q!
b0 U!
b0 W!
b1101001011000001111100000011110 L!
b101110 _!
b111 `!
b11010100010101010100011111000010 a!
b1101001011000001111100000011110 b!
b1001100111110000111010001111100 f!
b0 l!
b0 m!
b0 n!
b0 p!
b111110100 x!
b0 {!
b0 |!
b0 }!
b0 ~!
b0 !"
b0 ""
b0 #"
b0 $"
b0 %"
b0 &"
b100011 ."
b100011 /"
b11111111111111111111111111111111 M!
bx T!
bx t!
bx v!
0B
0A
0@
0?
0F
0E
0D
0C
0K
0J
0I
0H
0G
0P
0O
0N
0M
0L
0U
0T
0S
0R
0Q
0Z
0Y
0X
0W
0V
0l
0k
0j
0i
0h
0q
0p
0o
0n
0m
1r
0{
0z
0y
0x
0w
0"!
0!!
0~
0}
0|
0#!
0>
0=
0;
0:
x.
x-
x,
x+
x*
x)
x(
x'
0/
10
08
07
06
05
04
03
02
01
09
0<
$end
#5
1!
1:
#10
1"
0!
1=
0:
#15
1!
1:
#20
1#
0"
0!
1>
0=
0:
#25
1!
1:
b100100 /"
b100100 ."
15
14
13
12
19
1"!
1{
#30
1"
0!
1=
0:
#35
1!
1:
0.
0-
0,
1+
1*
1)
1(
0'
#40
1$
0"
0!
1;
0=
0:
#45
1!
1:
b1 u
b1 v
1B
0"!
1!!
1K
1z
b100101 /"
b10111110111001010101000001110101 f!
b10111110111001010101000001111000 f!
b100101 ."
18
05
04
03
02
#50
1"
0!
1=
0:
b1 `
b100110 /"
b100110 ."
1<
#55
1!
1:
b11 u
b10 v
0B
1A
1"!
1J
0{
#60
0"
0!
0=
0:
#65
1!
1:
b10 u
b11 v
1B
0"!
0!!
1~
0K
1y
b100111 /"
b10111110111001010101000001111100 f!
b10111110111001010101000010000001 f!
b100111 ."
13
12
11
#70
1"
0!
1=
0:
b10 `
b1 _
1Z
0r
#75
1!
1:
b110 u
b100 v
0B
0A
1@
1"!
1I
1{
#80
0"
0!
0=
0:
#85
1!
1:
b111 u
b101 v
1B
0"!
1!!
1K
0z
b101000 /"
b10111110111001010101000010000111 f!
b10111110111001010101000010001110 f!
b101000 ."
16
14
01
#90
1"
0!
1=
0:
0e
b111 `
b10 _
00
0Z
1Y
1q
1l
b101001 /"
b11010100010101010100011111000101 f!
b11010100010101010100011111001000 f!
b101001 ."
#95
1!
1:
b101 u
b110 v
0B
1A
1"!
0J
0{
#100
0"
0!
0=
0:
#105
1!
1:
b100 u
b111 v
1B
0"!
0!!
0~
1}
0K
1x
b101010 /"
b10111110111001010101000010010110 f!
b10111110111001010101000010011111 f!
b101010 ."
06
04
03
#110
1"
0!
1=
0:
b1 f
b1 g
b100 `
b111 _
1Z
1X
1F
0q
1p
1P
1k
1.
0+
0*
0)
0(
#115
1!
1:
b1 ]
b1100 u
b1000 v
0B
0A
0@
1?
1"!
1H
1{
#120
0"
0!
0=
0:
#125
1!
1:
b1101 u
b1001 v
b1 \
1U
1B
0"!
1!!
1K
1z
b101011 /"
b10111110111001010101000010101001 f!
b10111110111001010101000010110100 f!
b101011 ."
16
15
11
#130
1"
0!
1=
0:
b1101 `
b100 _
b11 f
b10 g
0F
1E
1q
1O
0Z
0Y
0l
b101100 /"
b11010100010101010100011111001100 f!
b11010100010101010100011111010001 f!
b101100 ."
#135
1!
1:
b11 ]
b1111 u
b1010 v
0B
1A
1"!
1J
0{
#140
0"
0!
0=
0:
#145
1!
1:
b1110 u
b1011 v
b11 \
1T
1B
0"!
0!!
1~
0K
0y
b101101 /"
b10111110111001010101000011000000 f!
b10111110111001010101000011001101 f!
b101101 ."
08
17
06
14
13
#150
1"
0!
1=
0:
b10 f
b11 g
b1110 `
b1101 _
1Z
1W
1F
0q
0p
1o
0P
1j
1)
1(
1'
#155
1!
1:
b10 ]
b1010 u
b1100 v
0B
0A
1@
1"!
0I
1{
#160
0"
0!
0=
0:
#165
1!
1:
b1011 u
b1101 v
b10 \
0U
1B
0"!
1!!
1K
0z
b101110 /"
b10111110111001010101000011011011 f!
b10111110111001010101000011101010 f!
b101110 ."
18
07
04
02
01
#170
1"
0!
1=
0:
b1011 `
b1110 _
b110 f
b100 g
0F
0E
1D
1q
1N
0Z
1Y
1l
b101111 /"
b11010100010101010100011111010111 f!
b11010100010101010100011111011110 f!
b101111 ."
#175
1!
1:
b110 ]
b1001 u
b1110 v
0B
1A
1"!
0J
0{
#180
0"
0!
0=
0:
#185
1!
1:
b1000 u
b1111 v
b110 \
1S
1B
0"!
0!!
0~
0}
1|
0K
1w
b110000 /"
b10111110111001010101000011111010 f!
b10111110111001010101000100001011 f!
b110000 ."
08
14
03
#190
1"
0!
1=
0:
b111 f
b101 g
b1000 `
b1011 _
1Z
0X
1F
0q
1p
1P
0k
1,
1*
0'
#195
1!
1:
b111 ]
b11000 u
b10000 v
0B
0A
0@
0?
1"!
1G
1{
#200
0"
0!
0=
0:
#205
1!
1:
b11001 u
b10001 v
b111 \
1U
1B
0"!
1!!
1K
1z
b110001 /"
b10111110111001010101000100011101 f!
b10111110111001010101000100110000 f!
b110001 ."
18
16
13
#210
1"
0!
1=
0:
b11001 `
b1000 _
b101 f
b110 g
0F
1E
1q
0O
0Z
0Y
0l
b110010 /"
b11010100010101010100011111100110 f!
b11010100010101010100011111101111 f!
b110010 ."
#215
1!
1:
b101 ]
b11011 u
b10010 v
0B
1A
1"!
1J
0{
#220
0"
0!
0=
0:
#225
1!
1:
b11010 u
b10011 v
b101 \
0T
1B
0"!
0!!
1~
0K
1y
b110011 /"
b10111110111001010101000101000100 f!
b10111110111001010101000101011001 f!
b110011 ."
12
11
#230
1"
0!
1=
0:
b100 f
b111 g
b11010 `
b11001 _
1Z
1V
1F
0q
0p
0o
1n
0P
1i
0,
0*
0)
#235
1!
1:
b100 ]
b11110 u
b10100 v
0B
0A
1@
1"!
1I
1{
#240
0"
0!
0=
0:
#245
1!
1:
b11111 u
b10101 v
b100 \
0U
1B
0"!
1!!
1K
0z
b110100 /"
b10111110111001010101000101101111 f!
b10111110111001010101000110000110 f!
b110100 ."
08
06
05
02
#250
1"
0!
1=
0:
b11111 `
b11010 _
b1100 f
b1000 g
0F
0E
0D
1C
1q
1M
0Z
1Y
1l
b110101 /"
b11010100010101010100011111111001 f!
b11010100010101010100100000000100 f!
b110101 ."
#255
1!
1:
b1100 ]
b11101 u
b10110 v
0B
1A
1"!
0J
0{
1#!
#260
0"
0!
0=
0:
#265
1!
1:
1t
b11100 u
b10111 v
b1100 \
1/
1R
1B
0K
0#!
b110110 /"
b10111110111001010101000110011110 f!
b10111110111001010101000110110111 f!
b110110 ."
17
16
15
12
#270
1"
0!
1=
0:
b1101 f
b1001 g
b11100 `
b11111 _
1Z
1X
1F
0q
1p
1P
1k
1,
1+
1'
#275
1!
1:
b1101 ]
0t
0"!
0!!
0~
1}
0/
0x
1#!
#280
0"
0!
0=
0:
#285
1!
1:
b10100 u
b11000 v
1t
b1101 \
1/
1U
0B
0A
0@
1?
0H
0#!
b110111 /"
b10111110111001010101000111010001 f!
b10111110111001010101000111101100 f!
b110111 ."
18
07
06
05
04
#290
1"
0!
1=
0:
b10100 `
b11100 _
b1111 f
b1010 g
0F
1E
1q
1O
0Z
0Y
0l
b111000 /"
b11010100010101010100100000010000 f!
b11010100010101010100100000011101 f!
b111000 ."
#295
1!
1:
b1111 ]
0t
1"!
0/
1{
1#!
#300
0"
0!
0=
0:
#305
1!
1:
b10101 u
b11001 v
1t
b1111 \
1/
1T
1B
1K
0#!
b111001 /"
b10111110111001010101001000001000 f!
b10111110111001010101001000100101 f!
b111001 ."
15
14
#310
1"
0!
1=
0:
b1110 f
b1011 g
b10101 `
b10100 _
0W
1F
0q
0p
1o
0P
0j
0.
1-
0,
1*
1)
#315
1!
1:
b1110 ]
0t
0"!
1!!
0/
1z
1#!
#320
0"
0!
0=
0:
#325
1!
1:
b10111 u
b11010 v
1t
b1110 \
1/
0U
0B
1A
1J
0#!
b111010 /"
b10111110111001010101001001000011 f!
b10111110111001010101001001100010 f!
b111010 ."
08
17
04
02
01
#330
1"
0!
1=
0:
b10111 `
b10101 _
b1010 f
b1100 g
0F
0E
1D
1q
0N
1Z
1l
b111011 /"
b11010100010101010100100000101011 f!
b11010100010101010100100000111010 f!
b111011 ."
#335
1!
1:
b1010 ]
0t
1"!
0/
0{
1#!
#340
0"
0!
0=
0:
#345
1!
1:
b10110 u
b11011 v
1t
b1010 \
1/
0S
1B
0K
0#!
b111100 /"
b10111110111001010101001010000010 f!
b10111110111001010101001010100011 f!
b111100 ."
14
#350
1"
0!
1=
0:
b1011 f
b1101 g
b10110 `
b10111 _
1Y
1F
0q
1p
1P
0k
1.
0-
0*
0(
0'
#355
1!
1:
b1011 ]
0t
0"!
0!!
1~
0/
0y
1#!
#360
0"
0!
0=
0:
#365
1!
1:
b10010 u
b11100 v
1t
b1011 \
1/
1U
0B
0A
1@
0I
0#!
b111101 /"
b10111110111001010101001011000101 f!
b10111110111001010101001011101000 f!
b111101 ."
05
#370
1"
0!
1=
0:
b10010 `
b10110 _
b1001 f
b1110 g
0F
1E
1q
0O
0Z
0l
b111110 /"
b11010100010101010100100001001010 f!
b11010100010101010100100001011011 f!
b111110 ."
#375
1!
1:
b1001 ]
0t
1"!
0/
1{
1#!
#380
0"
0!
0=
0:
#385
1!
1:
b10011 u
b11101 v
1t
b1001 \
1/
0T
1B
1K
0#!
b111111 /"
b10111110111001010101001100001100 f!
b10111110111001010101001100110001 f!
b111111 ."
07
16
03
11
#390
1"
0!
1=
0:
b1000 f
b1111 g
b10011 `
b10010 _
0X
1F
0q
0p
0o
0n
1m
0P
1h
0.
1*
0)
#395
1!
1:
b1000 ]
0t
0"!
1!!
0/
0z
1#!
#400
0"
0!
0=
0:
#405
1!
1:
b10001 u
b11110 v
1t
b1000 \
1/
0U
0B
1A
0J
0#!
b1000000 /"
b10111110111001010101001101010111 f!
b10111110111001010101001101111110 f!
b1000000 ."
12
#410
1"
0!
1=
0:
b10001 `
b10011 _
b11000 f
b10000 g
0F
0E
0D
0C
1q
1L
1Z
1l
b1000001 /"
b11010100010101010100100001101101 f!
b11010100010101010100100010000000 f!
b1000001 ."
#415
1!
1:
b11000 ]
0t
1"!
0/
0{
1#!
#420
0"
0!
0=
0:
#425
1!
1:
b10000 u
b11111 v
1t
b11000 \
1/
1Q
1B
0K
0#!
b1000010 /"
b10111110111001010101001110100110 f!
b10111110111001010101001111001111 f!
b1000010 ."
18
04
13
02
01
#430
1"
0!
1=
0:
b11001 f
b10001 g
b10000 `
b10001 _
0Y
1F
0q
1p
1P
1k
1.
1,
1)
#435
1!
1:
b11001 ]
0t
0"!
0!!
0~
0}
0|
0/
0w
1#!
#440
0"
0!
0=
0:
#445
1!
1:
b0 u
b0 v
1t
b11001 \
1/
1U
0B
0A
0@
0?
0G
0#!
b1000011 /"
b10111110111001010101001111111001 f!
b10111110111001010101010000100100 f!
b1000011 ."
08
15
14
03
#450
1"
0!
1=
0:
b0 `
b10000 _
b11011 f
b10010 g
0F
1E
1q
1O
0Z
0l
b1000100 /"
b11010100010101010100100010010100 f!
b11010100010101010100100010101001 f!
b1000100 ."
#455
1!
1:
b11011 ]
0t
1"!
0/
1{
1#!
#460
0"
0!
0=
0:
#465
1!
1:
b1 u
b1 v
1t
b11011 \
1/
1T
1B
1K
0#!
b1000101 /"
b10111110111001010101010001010000 f!
b10111110111001010101010001111101 f!
b1000101 ."
17
04
#470
1"
0!
1=
0:
b11010 f
b10011 g
b1 `
b0 _
0V
1F
0q
0p
1o
0P
1j
1(
1'
#475
1!
1:
b11010 ]
0t
0"!
1!!
0/
1z
1#!
#480
0"
0!
0=
0:
#485
1!
1:
b11 u
b10 v
1t
b11010 \
1/
0U
0B
1A
1J
0#!
b1000110 /"
b10111110111001010101010010101011 f!
b10111110111001010101010011011010 f!
b1000110 ."
07
06
05
11
#490
1"
0!
1=
0:
b11 `
b1 _
b11110 f
b10100 g
0F
0E
1D
1q
1N
1Z
1l
b1000111 /"
b11010100010101010100100010111111 f!
b11010100010101010100100011010110 f!
b1000111 ."
#495
1!
1:
b11110 ]
0t
1"!
0/
0{
1#!
#500
0"
0!
0=
0:
#505
1!
1:
b10 u
b11 v
1t
b11110 \
1/
1S
1B
0K
0#!
b1001000 /"
b10111110111001010101010100001010 f!
b10111110111001010101010100111011 f!
b1001000 ."
17
16
15
13
12
01
#510
1"
0!
1=
0:
b11111 f
b10101 g
b10 `
b11 _
1Y
1F
0q
1p
1P
0k
0.
0,
0+
0(
#515
1!
1:
b11111 ]
0t
0"!
0!!
1~
0/
1y
1#!
#520
0"
0!
0=
0:
#525
1!
1:
b110 u
b100 v
1t
b11111 \
1/
1U
0B
0A
1@
1I
0#!
b1001001 /"
b10111110111001010101010101101101 f!
b10111110111001010101010110100000 f!
b1001001 ."
05
14
#530
1"
0!
1=
0:
b110 `
b10 _
b11101 f
b10110 g
0F
1E
1q
0O
0Z
0l
b1001010 /"
b11010100010101010100100011101110 f!
b11010100010101010100100100000111 f!
b1001010 ."
#535
1!
1:
b11101 ]
0t
1"!
0/
1{
1#!
#540
0"
0!
0=
0:
#545
1!
1:
b111 u
b101 v
1t
b11101 \
1/
0T
1B
1K
0#!
b1001011 /"
b10111110111001010101010111010100 f!
b10111110111001010101011000001001 f!
b1001011 ."
18
15
04
03
#550
1"
0!
1=
0:
b11100 f
b10111 g
b111 `
b110 _
1X
1F
0q
0p
0o
1n
0P
0i
1-
1,
1+
1(
#555
1!
1:
b11100 ]
0t
0"!
1!!
0/
0z
1#!
#560
0"
0!
0=
0:
#565
1!
1:
b101 u
b110 v
1t
b11100 \
1/
0U
0B
1A
0J
0#!
b1001100 /"
b10111110111001010101011000111111 f!
b10111110111001010101011001110110 f!
b1001100 ."
08
05
02
#570
1"
0!
1=
0:
b101 `
b111 _
b10100 f
b11000 g
0F
0E
0D
1C
1q
0M
1Z
1l
1.
0-
0,
0+
0*
b1001101 /"
b11010100010101010100100100100001 f!
b11010100010101010100100100111100 f!
b1001101 ."
#575
1!
1:
b10100 ]
0t
1"!
0/
0{
1#!
#580
0"
0!
0=
0:
#585
1!
1:
b100 u
b111 v
1t
b10100 \
1/
0R
1B
0K
0#!
b1001110 /"
b10111110111001010101011010101110 f!
b10111110111001010101011011100111 f!
b1001110 ."
18
07
15
12
#590
1"
0!
1=
0:
b10101 f
b11001 g
b100 `
b101 _
0Y
1F
0q
1p
1P
1k
1+
1*
#595
1!
1:
b10101 ]
0t
0"!
0!!
0~
1}
0/
1x
1#!
#600
0"
0!
0=
0:
#605
1!
1:
b1100 u
b1000 v
1t
b10101 \
1/
1U
0B
0A
0@
1?
1H
0#!
b1001111 /"
b10111110111001010101011100100001 f!
b10111110111001010101011101011100 f!
b1001111 ."
08
17
06
13
11
#610
1"
0!
1=
0:
b1100 `
b100 _
b10111 f
b11010 g
0F
1E
1q
1O
0Z
0l
0.
1-
0*
0(
0'
b1010000 /"
b11010100010101010100100101011000 f!
b11010100010101010100100101110101 f!
b1010000 ."
#615
1!
1:
b10111 ]
0t
1"!
0/
1{
1#!
#620
0"
0!
0=
0:
#625
1!
1:
b1101 u
b1001 v
1t
b10111 \
1/
1T
1B
1K
0#!
b1010001 /"
b1010001 ."
#630
1"
0!
1=
0:
b10110 f
b11011 g
b1101 `
b1100 _
1W
1F
0q
0p
1o
0P
0j
1*
#635
1!
1:
b10110 ]
0t
0"!
1!!
0/
1z
1#!
#640
0"
0!
0=
0:
#645
1!
1:
b1111 u
b1010 v
1t
b10110 \
1/
0U
0B
1A
1J
0#!
#650
1"
0!
1=
0:
b1111 `
b1101 _
b10010 f
b11100 g
0F
0E
1D
1q
0N
1Z
1l
0+
b1010010 /"
b11010100010101010100100110010011 f!
b11010100010101010100100110110010 f!
b1010010 ."
#655
1!
1:
b10010 ]
0t
1"!
0/
0{
1#!
